<?xml version="1.0" encoding="UTF-8" standalone="no"?>
<!-- Created with Inkscape (http://www.inkscape.org/) -->

<svg
   width="256"
   height="256"
   viewBox="0 0 67.733334 67.733334"
   version="1.1"
   id="svg90"
   inkscape:version="1.1.2 (0a00cf5339, 2022-02-04)"
   sodipodi:docname="clearDental-mediaControls.svg"
   xmlns:inkscape="http://www.inkscape.org/namespaces/inkscape"
   xmlns:sodipodi="http://sodipodi.sourceforge.net/DTD/sodipodi-0.dtd"
   xmlns:xlink="http://www.w3.org/1999/xlink"
   xmlns="http://www.w3.org/2000/svg"
   xmlns:svg="http://www.w3.org/2000/svg">
  <sodipodi:namedview
     id="namedview92"
     pagecolor="#ffffff"
     bordercolor="#666666"
     borderopacity="1.0"
     inkscape:pageshadow="2"
     inkscape:pageopacity="0.0"
     inkscape:pagecheckerboard="0"
     inkscape:document-units="mm"
     showgrid="false"
     units="px"
     width="256px"
     inkscape:zoom="1.1474186"
     inkscape:cx="295.01003"
     inkscape:cy="163.84604"
     inkscape:window-width="1280"
     inkscape:window-height="1377"
     inkscape:window-x="0"
     inkscape:window-y="0"
     inkscape:window-maximized="0"
     inkscape:current-layer="layer1" />
  <defs
     id="defs87">
    <style
       type="text/css"
       id="current-color-scheme">
      .ColorScheme-Text {
        color:#232629;
      }
      </style>
    <style
       type="text/css"
       id="current-color-scheme-3">
      .ColorScheme-Text {
        color:#232629;
      }
      .ColorScheme-Highlight {
        color:#3daee9;
      }
      </style>
    <linearGradient
       inkscape:collect="always"
       id="linearGradient4159">
      <stop
         style="stop-color:#2a2c2f"
         id="stop4161" />
      <stop
         offset="1"
         style="stop-color:#424649"
         id="stop4163" />
    </linearGradient>
    <linearGradient
       inkscape:collect="always"
       id="linearGradient4391">
      <stop
         stop-color="#21c9fb"
         id="stop464" />
      <stop
         offset="1"
         stop-color="#197cf1"
         id="stop466" />
    </linearGradient>
    <linearGradient
       inkscape:collect="always"
       xlink:href="#linearGradient4227"
       id="linearGradient4220"
       y1="524.79797"
       x1="393.57144"
       y2="538.79797"
       x2="407.57147"
       gradientUnits="userSpaceOnUse"
       gradientTransform="translate(-386.57142,-514.69802)" />
    <linearGradient
       inkscape:collect="always"
       id="linearGradient4227">
      <stop
         style="stop-color:#292c2f"
         id="stop4229" />
      <stop
         offset="1"
         style="stop-opacity:0"
         id="stop4231" />
    </linearGradient>
    <linearGradient
       inkscape:collect="always"
       id="linearGradient4293">
      <stop
         id="stop4295" />
      <stop
         offset="1"
         style="stop-opacity:0"
         id="stop4297" />
    </linearGradient>
    <linearGradient
       inkscape:collect="always"
       id="linearGradient4303-6">
      <stop
         style="stop-color:#c6cdd1"
         id="stop4305-7" />
      <stop
         offset="1"
         style="stop-color:#e0e5e7"
         id="stop4307-0" />
    </linearGradient>
    <linearGradient
       inkscape:collect="always"
       id="linearGradient4643-8"
       xlink:href="#linearGradient4303-6"
       y1="543.58923"
       y2="502.65616"
       x2="0"
       gradientUnits="userSpaceOnUse"
       gradientTransform="matrix(0.66666726,0,0,0.63518419,128.19014,198.51873)" />
    <linearGradient
       inkscape:collect="always"
       id="linearGradient4183"
       xlink:href="#linearGradient4293"
       y1="525.79797"
       y2="540.79797"
       x1="391.57144"
       gradientUnits="userSpaceOnUse"
       x2="406.57147"
       gradientTransform="translate(-7e-6,2.9e-5)" />
    <linearGradient
       inkscape:collect="always"
       xlink:href="#linearGradient4159"
       id="linearGradient4270"
       y1="543.79797"
       y2="539.79797"
       x2="0"
       gradientUnits="userSpaceOnUse" />
    <linearGradient
       inkscape:collect="always"
       xlink:href="#linearGradient4391"
       id="linearGradient4296"
       y1="543.79797"
       y2="523.79797"
       x2="0"
       gradientUnits="userSpaceOnUse" />
    <linearGradient
       inkscape:collect="always"
       xlink:href="#linearGradient4159"
       id="linearGradient4235-5"
       y1="-533.79797"
       y2="-523.79797"
       x2="0"
       gradientUnits="userSpaceOnUse"
       gradientTransform="translate(-2.1e-5,-3.00006)" />
  </defs>
  <g
     inkscape:label="Layer 1"
     inkscape:groupmode="layer"
     id="layer1">
    <path
       class="cls-3"
       d="m 18.787596,56.541821 a 9.4843305,9.3213903 0 0 1 0.65952,1.877661 c 0.251043,1.254561 -0.540382,1.626749 -1.4552,0.723465 A 9.7183541,9.5513933 0 0 1 16.740953,57.516198 C 11.532869,49.403364 4.4440873,25.754895 4.4015366,15.233302 c 0,-3.153134 0.6510113,-6.8248139 3.4975863,-8.7275745 C 11.3031,4.2433444 16.409067,5.2804537 19.978987,6.5517215 A 39.332952,38.657215 0 0 0 26.24656,8.4377439 17.590051,17.287854 0 0 0 34.19059,8.1157386 C 36.743573,7.4424561 35.89258,4.3938761 33.339597,5.0671586 28.637853,6.3217199 25.433859,5.1423927 21.05124,3.5825957 A 27.789216,27.3118 0 0 0 15.779331,2.2318421 C 12.464708,1.7509282 8.9713755,1.9934794 6.1077813,3.904601 2.2995819,6.4555292 1.1975441,10.967777 1.2060546,15.254197 1.2358384,26.377963 8.4905641,50.586816 14.026283,59.214024 a 10.011947,9.8399424 0 0 0 3.114638,3.232588 c 1.114803,0.652372 2.446607,0.907457 3.638001,0.301095 1.19139,-0.606378 1.770066,-1.873488 1.867933,-3.157322 a 9.429016,9.267026 0 0 0 -0.919075,-4.319863 76.415025,75.10222 0 0 1 -2.846576,-8.44739 c -1.37861,-6.398255 1.131823,-13.022339 8.390802,-13.678899 a 9.2503071,9.0913875 0 0 1 3.778415,0.418197 8.0844451,7.9455549 0 0 1 2.612554,1.421832 c 2.033876,1.672742 4.089027,-0.765287 2.055151,-2.42548 A 11.301203,11.107049 0 0 0 32.07587,30.572394 12.654284,12.436884 0 0 0 24.906244,30.354926 c -8.509941,2.166207 -10.531053,9.701952 -9.114149,17.00349 0.374439,1.944567 2.19131,7.372632 2.978481,9.1792"
       id="path28"
       style="fill:#135088;fill-rule:evenodd;stroke-width:0.421825" />
    <path
       class="cls-4"
       d="m 45.18969,58.277297 a 12.764914,12.545613 0 0 1 -1.497749,1.472012 c -0.302103,0.23419 -0.79568,0.577106 -1.178627,0.305284 -0.382948,-0.271824 -0.212748,-0.83638 -0.08935,-1.17928 a 11.552247,11.353779 0 0 1 0.850994,-1.714581 c 2.127485,-3.726035 4.467719,-8.602109 4.574094,-12.938696 0.06807,-2.801854 -0.872269,-5.616261 -3.574176,-6.950277 -2.518943,-1.25456 -5.591032,-0.673281 -7.914246,0.731826 -2.246625,1.359116 -0.561657,4.048057 1.701989,2.68477 1.344571,-0.811297 3.306112,-1.325654 4.791098,-0.59383 1.484985,0.731826 1.838146,2.546757 1.799851,4.05223 -0.09361,3.818055 -2.408313,8.455751 -4.31454,11.734333 v 0 0 a 9.5013506,9.3381178 0 0 0 -1.212666,2.755846 c -0.425497,1.580756 -0.425497,3.516961 1.089271,4.554069 1.51477,1.037094 3.765651,0.384723 5.105966,-0.660748 2.127487,-1.647644 4.054987,-4.244598 5.565502,-6.460986 a 50.276738,49.412986 0 0 0 3.880535,-7.050628 c 1.276491,-2.764224 2.387037,-5.607901 3.403977,-8.472473 1.016938,-2.864588 1.910482,-5.708249 2.727437,-8.602109 0.723343,-2.542584 1.37861,-5.11025 1.940267,-7.690465 C 65.451865,12.293448 55.890945,5.0169919 44.542937,9.4957798 a 75.644876,74.345301 0 0 1 -7.99509,2.8436622 30.99321,30.460749 0 0 1 -8.616315,1.124924 c -2.642338,0 -2.659358,3.140584 0,3.157322 a 35.694953,35.081716 0 0 0 12.186236,-2.040759 c 1.893463,-0.648199 3.74863,-1.400936 5.608051,-2.136934 a 13.96907,13.729083 0 0 1 6.382458,-1.078931 8.6758862,8.5268349 0 0 1 4.952786,1.948755 8.386548,8.2424676 0 0 1 2.629572,4.232048 13.335079,13.105983 0 0 1 0,6.067904 c -0.536126,2.471491 -1.165862,4.934603 -1.855167,7.372632 -0.787169,2.793495 -1.655183,5.574441 -2.616807,8.313566 -0.961625,2.739124 -2.042387,5.52843 -3.267818,8.200649 a 47.042961,46.234765 0 0 1 -3.74863,6.828987 38.422389,37.762295 0 0 1 -3.008264,3.947692"
       id="path30"
       style="fill:#2fb1d2;fill-rule:evenodd;stroke-width:0.421825" />
    <path
       class="cls-5"
       d="m 26.778431,62.638996 a 2.1657802,2.1285722 0 0 0 1.076509,1.158369 1.4934949,1.4678367 0 0 0 1.187135,0 1.5147697,1.488746 0 0 0 0.8127,-0.836379 2.1955652,2.1578454 0 0 0 -0.127642,-1.564017 c -1.433926,-3.245121 -2.884869,-7.853546 -1.859422,-11.366317 0.425496,-1.430208 1.442436,-3.006775 3.131658,-3.040219 1.689224,-0.0335 2.842322,1.526385 3.314625,2.973297 0.651009,1.990578 0.425497,4.269698 -0.02128,6.272808 a 27.729647,27.253254 0 0 1 -1.701987,4.926257 2.1572704,2.1202086 0 0 0 -0.140411,1.564017 1.4892399,1.4636548 0 0 0 1.991327,0.865652 2.1742902,2.136936 0 0 0 1.085017,-1.145836 c 1.804107,-3.997874 3.255053,-9.149945 1.850913,-13.457258 -0.927585,-2.831128 -3.246544,-5.231524 -6.446282,-5.16462 -3.199739,0.06686 -5.318714,2.509123 -6.144177,5.327701 -0.727601,2.509122 -0.523364,5.214802 0.03829,7.715563 a 32.886672,32.32168 0 0 0 1.957289,5.779344"
       id="path32"
       style="fill:#1a8bc3;fill-rule:evenodd;stroke-width:0.421825" />
    <path
       class="cls-3"
       d="m 25.225367,19.042979 a 4.2847558,4.211144 0 1 1 -4.301776,4.206965 4.280501,4.2069622 0 0 1 4.301776,-4.206965"
       id="path34"
       style="fill:#135088;fill-rule:evenodd;stroke-width:0.421825" />
    <path
       class="cls-4"
       d="m 42.743082,27.473632 a 3.4763114,3.4165886 0 1 1 -3.472057,3.416595 3.4763114,3.4165886 0 0 1 3.472057,-3.416595"
       id="path36"
       style="fill:#2fb1d2;fill-rule:evenodd;stroke-width:0.421825" />
    <path
       class="cls-5"
       d="m 29.93562,36.100841 a 3.2890925,3.2325862 0 1 1 -3.289094,3.232587 3.2890925,3.2325862 0 0 1 3.289094,-3.232587"
       id="path38"
       style="fill:#1a8bc3;fill-rule:evenodd;stroke-width:0.421825" />
    <g
       inkscape:label="Capa 1"
       id="layer1-6"
       transform="matrix(0.98744865,0,0,1.0997268,-344.42509,-533.15354)">
      <rect
         width="32"
         x="384.57144"
         y="517.79797"
         rx="0"
         height="28"
         style="fill:url(#linearGradient4643-8)"
         id="rect4641-5" />
      <path
         inkscape:connector-curvature="0"
         style="opacity:0.2;fill:url(#linearGradient4183);fill-rule:evenodd"
         id="path4167"
         d="m 385.57142,543.79803 30,-20 1.00001,1 -1e-5,20.99997 -29,3e-5 z" />
      <rect
         width="31.999939"
         x="384.57147"
         y="517.79797"
         height="4"
         style="fill:#566069"
         id="rect4647-8" />
      <rect
         width="31.999968"
         x="384.57141"
         y="521.79797"
         height="1"
         style="fill:#3daee9"
         id="rect4649-8" />
      <rect
         width="30"
         x="385.57141"
         y="523.79797"
         height="20.000031"
         style="fill:url(#linearGradient4296)"
         id="rect4653-5" />
      <rect
         width="2"
         x="413.57141"
         y="518.79797"
         rx="1"
         height="2"
         style="fill:#eff0f1"
         id="rect4661-1" />
      <rect
         width="12"
         x="394.57144"
         y="525.79797"
         rx="6"
         height="12"
         style="opacity:0.3;fill:#ebf9fe"
         id="rect4225-8" />
      <path
         style="opacity:0.2;fill:url(#linearGradient4220);fill-rule:evenodd"
         id="path4212"
         d="M 19.494141,12.505859 12.449219,19.550781 20.900391,28 H 30 v -4.900391 z"
         transform="translate(384.57143,515.798)" />
      <rect
         width="10"
         x="395.57144"
         y="-536.79797"
         rx="5"
         height="10"
         style="fill:url(#linearGradient4235-5)"
         id="rect4227-8"
         transform="scale(1,-1)" />
      <path
         inkscape:connector-curvature="0"
         style="fill:#ffffff;fill-rule:evenodd"
         id="path4237-6"
         d="m 398.57141,528.79806 v 6 l 4.5,-3 z" />
      <rect
         width="29.999981"
         x="385.57144"
         y="539.79797"
         height="3.999974"
         style="fill:url(#linearGradient4270)"
         id="rect4262" />
      <rect
         width="15.999989"
         x="387.38394"
         y="540.79797"
         rx="1"
         height="2"
         style="fill:#3092df"
         id="rect4430-3" />
      <rect
         width="2"
         x="401.38394"
         y="540.79797"
         rx="1"
         height="2"
         style="fill:#daebf9"
         id="rect4432-0" />
    </g>
  </g>
</svg>
